2.151343919868126342e-01 0.000000000000000000e+00 1.000000000000000000e+00 0.000000000000000000e+00
0.171544872850912578e-01 1.000000000000000000e+00 1.000000000000000000e+00 0.000000000000000000e+00
0.969875179891102501e-01 2.000000000000000000e+00 1.000000000000000000e+00 0.000000000000000000e+00
0.566464828161004741e-01 3.000000000000000000e+00 1.000000000000000000e+00 0.000000000000000000e+00
0.090598815373622132e-01 4.000000000000000000e+00 1.000000000000000000e+00 0.000000000000000000e+00
0.574931525358917339e-01 0.000000000000000000e+00 1.000000000000000000e+00 1.000000000000000000e+00
1.460302061878890223e-01 1.000000000000000000e+00 1.000000000000000000e+00 1.000000000000000000e+00
0.296410984331631155e-01 2.000000000000000000e+00 1.000000000000000000e+00 1.000000000000000000e+00
0.639044919283041857e-01 3.000000000000000000e+00 1.000000000000000000e+00 1.000000000000000000e+00
0.670713622933317266e-01 4.000000000000000000e+00 1.000000000000000000e+00 1.000000000000000000e+00
0.247037809841005984e-01 0.000000000000000000e+00 1.000000000000000000e+00 2.000000000000000000e+00
0.457464373500457100e-01 1.000000000000000000e+00 1.000000000000000000e+00 2.000000000000000000e+00
1.059618652374951342e-01 2.000000000000000000e+00 1.000000000000000000e+00 2.000000000000000000e+00
0.883182905780951044e-01 3.000000000000000000e+00 1.000000000000000000e+00 2.000000000000000000e+00
0.868645458350138178e-01 4.000000000000000000e+00 1.000000000000000000e+00 2.000000000000000000e+00
0.334833273299023348e-01 0.000000000000000000e+00 1.000000000000000000e+00 3.000000000000000000e+00
0.007628122886811806e-01 1.000000000000000000e+00 1.000000000000000000e+00 3.000000000000000000e+00
0.597974912846771955e-01 2.000000000000000000e+00 1.000000000000000000e+00 3.000000000000000000e+00
1.438844447940396121e-01 3.000000000000000000e+00 1.000000000000000000e+00 3.000000000000000000e+00
0.264618659972178927e-01 4.000000000000000000e+00 1.000000000000000000e+00 3.000000000000000000e+00
0.394612417053728848e-01 0.000000000000000000e+00 1.000000000000000000e+00 4.000000000000000000e+00
0.529826419440220020e-01 1.000000000000000000e+00 1.000000000000000000e+00 4.000000000000000000e+00
0.726353871186067979e-01 2.000000000000000000e+00 1.000000000000000000e+00 4.000000000000000000e+00
0.058416215884863121e-01 3.000000000000000000e+00 1.000000000000000000e+00 4.000000000000000000e+00
0.967950620045751720e-01 4.000000000000000000e+00 1.000000000000000000e+00 4.000000000000000000e+00
