[395, 404, 404, 417, 414, 435, 419, 431, 437, 425, 432, 425, 416, 416, 424, 408, 422, 399, 398, 372, 373, 357]
[3, 162, 191, 181, 194, 189, 212, 202, 206, 216, 220, 242, 249, 262, 270, 274, 280, 284, 299, 292, 322, 319, 341, 327, 343, 344, 362, 366, 373, 387, 377, 385, 384, 395, 404, 404, 417, 414, 435, 419, 431, 437, 425, 432, 425, 416, 416, 424, 408, 422, 399]
[5, 8, 10, 18, 18, 21, 30, 28, 50, 56, 69, 78, 85, 99, 101, 126, 123, 134, 149, 162, 191, 181, 194, 189, 212, 202, 206, 216, 220, 242, 249, 262, 270, 274, 280, 284, 299, 292, 322, 319, 341, 327, 343, 344, 362, 366, 373, 387, 377, 385, 384, 395, 404, 404, 417, 414, 435, 419, 431, 437, 425, 432, 425, 416, 416, 424, 408, 422, 399, 398, 372, 373, 357, 365, 350, 333, 313, 286, 295, 269, 268, 253, 242, 246, 231, 233, 211, 212, 202, 183, 171, 161, 147, 1, 2, 98, 91, 79, 69, 57, 44, 38, 24, 20, 10, 11, 4]
[5, 8, 10, 18, 18, 21, 30, 28, 50, 56, 69, 78, 85, 99, 101, 126, 123, 134, 149, 162, 191, 181, 194, 189, 212, 202, 206, 216, 220, 242, 249, 262, 270, 274, 280, 284, 299, 292, 322, 319, 341, 327, 343, 344, 362, 366, 373, 387, 377, 385, 384, 395, 404, 404, 417, 414, 435, 419, 431, 437, 425, 432, 425, 416, 416, 424, 408, 422, 399, 398, 372, 373, 357, 365, 350, 333, 313, 1, 295, 269, 268, 253, 242, 246, 231, 233, 211, 212, 202, 183, 171, 161, 147, 1, 2, 98, 91, 79, 69, 57, 44, 38, 24, 20, 10, 11, 4]
[5, 8, 10, 18, 18, 21, 30, 28, 50, 56, 69, 78, 85, 99, 101, 126, 123, 134, 149, 162, 191, 181, 194, 189, 212, 202, 206, 216, 220, 242, 249, 262, 270, 274, 280, 284, 299, 292, 322, 319, 341, 327, 343, 344, 362, 366, 373, 387, 377, 385, 384, 395, 404, 404, 417, 414, 435, 419, 431, 437, 425, 432, 425, 416, 416, 424, 408, 422, 399, 398, 372, 373, 357, 365, 350, 333, 313, 286, 295, 269, 268, 253, 242, 1, 231, 233, 211, 212, 202, 183, 171, 161, 147, 1, 2, 98, 91, 79, 69, 57, 44, 38, 24, 20, 10, 11, 4]
[5, 8, 10, 18, 18, 21, 30, 28, 50, 56, 69, 78, 85, 99, 101, 126, 123, 134, 149, 162, 191, 181, 194, 189, 212, 202, 206, 216, 220, 242, 249, 262, 270, 274, 280, 284, 299, 292, 322, 319, 341, 327, 343, 344, 362, 366, 373, 387, 377, 385, 384, 395, 404, 404, 417, 414, 435, 419, 431, 437, 425, 432, 425, 416, 416, 424, 408, 422, 399, 398, 372, 373, 357, 365, 350, 333, 313, 1, 295, 269, 268, 253, 242, 1, 231, 233, 211, 212, 202, 183, 171, 161, 147, 1, 2, 98, 91, 79, 69, 57, 44, 38, 24, 20, 10, 11, 4]
[5, 8, 10, 18, 18, 21, 30, 28, 50, 56, 69, 78, 85, 99, 101, 126, 123, 134, 149, 162, 191, 181, 194, 189, 212, 202, 206, 216, 220, 242, 249, 262, 270, 274, 280, 284, 299, 292, 322, 319, 341, 327, 343, 344, 362, 366, 373, 387, 377, 385, 384, 395, 404, 404, 417, 414, 435, 419, 431, 437, 425, 432, 425, 416, 416, 424, 408, 422, 399, 398, 372, 373, 357, 365, 350, 333, 313, 286, 295, 269, 268, 253, 242, 246, 231, 233, 211, 212, 202, 183, 171, 161, 147, 125, 108, 98, 91, 79, 69, 57, 44, 38, 24, 20, 10, 11, 4]
[5, 8, 10, 18, 18, 21, 30, 28, 50, 56, 69, 78, 85, 99, 101, 126, 123, 134, 149, 162, 191, 181, 194, 189, 212, 202, 206, 216, 220, 242, 249, 262, 270, 274, 280, 284, 299, 292, 322, 319, 341, 327, 343, 344, 362, 366, 373, 387, 377, 385, 384, 395, 404, 404, 417, 414, 435, 419, 431, 437, 425, 432, 425, 416, 416, 424, 408, 422, 399, 398, 372, 373, 357, 365, 350, 333, 313, 1, 295, 269, 268, 253, 242, 246, 231, 233, 211, 212, 202, 183, 171, 161, 147, 125, 108, 98, 91, 79, 69, 57, 44, 38, 24, 20, 10, 11, 4]
[5, 8, 10, 18, 18, 21, 30, 28, 50, 56, 69, 78, 85, 99, 101, 126, 123, 134, 149, 162, 191, 181, 194, 189, 212, 202, 206, 216, 220, 242, 249, 262, 270, 274, 280, 284, 299, 292, 322, 319, 341, 327, 343, 344, 362, 366, 373, 387, 377, 385, 384, 395, 404, 404, 417, 414, 435, 419, 431, 437, 425, 432, 425, 416, 416, 424, 408, 422, 399, 398, 372, 373, 357, 365, 350, 333, 313, 286, 295, 269, 268, 253, 242, 1, 231, 233, 211, 212, 202, 183, 171, 161, 147, 125, 108, 98, 91, 79, 69, 57, 44, 38, 24, 20, 10, 11, 4]
[5, 8, 10, 18, 18, 21, 30, 28, 50, 56, 69, 78, 85, 99, 101, 126, 123, 134, 149, 162, 191, 181, 194, 189, 212, 202, 206, 216, 220, 242, 249, 262, 270, 274, 280, 284, 299, 292, 322, 319, 341, 327, 343, 344, 362, 366, 373, 387, 377, 385, 384, 395, 404, 404, 417, 414, 435, 419, 431, 437, 425, 432, 425, 416, 416, 424, 408, 422, 399, 398, 372, 373, 357, 365, 350, 333, 313, 1, 295, 269, 268, 253, 242, 1, 231, 233, 211, 212, 202, 183, 171, 161, 147, 125, 108, 98, 91, 79, 69, 57, 44, 38, 24, 20, 10, 11, 4]
[395, 404, 404, 417, 414, 435, 419, 431, 437, 425, 432, 425, 416, 416, 424, 408, 422, 399]
[5, 8, 10, 18, 18, 21, 30, 28, 50, 56, 69, 78, 85, 99, 101, 126, 123, 134, 149, 162, 191, 181, 194, 189, 212, 202, 206, 216, 220, 242, 249, 262, 270, 274, 280, 284, 299, 292, 322, 319, 341, 327, 343, 344, 362, 366, 373, 387, 377, 385, 384, 395, 404, 404, 417, 414]
[3, 162, 191, 181, 194, 189, 212, 202, 206, 216, 220, 242, 249, 262, 270, 274, 280, 284, 299, 292, 322, 319, 341, 327, 343, 344, 362, 366, 373, 387, 377, 385, 384, 395, 404, 404, 417, 414, 435, 419, 431, 437, 425, 432, 425, 416, 416, 424, 408, 422, 399, 398, 372, 373, 357, 365, 350, 333, 313, 286, 295, 269, 268, 253, 242, 246, 231, 233, 211, 212, 202, 183, 171, 161, 147, 1, 2, 98, 91, 79, 69, 57, 44, 38, 24, 20, 10, 11, 4]
[3, 162, 191, 181, 194, 189, 212, 202, 206, 216, 220, 242, 249, 262, 270, 274, 280, 284, 299, 292, 322, 319, 341, 327, 343, 344, 362, 366, 373, 387, 377, 385, 384, 395, 404, 404, 417, 414, 435, 419, 431, 437, 425, 432, 425, 416, 416, 424, 408, 422, 399, 398, 372, 373, 357, 365, 350, 333, 313, 1, 295, 269, 268, 253, 242, 246, 231, 233, 211, 212, 202, 183, 171, 161, 147, 1, 2, 98, 91, 79, 69, 57, 44, 38, 24, 20, 10, 11, 4]
[3, 162, 191, 181, 194, 189, 212, 202, 206, 216, 220, 242, 249, 262, 270, 274, 280, 284, 299, 292, 322, 319, 341, 327, 343, 344, 362, 366, 373, 387, 377, 385, 384, 395, 404, 404, 417, 414, 435, 419, 431, 437, 425, 432, 425, 416, 416, 424, 408, 422, 399, 398, 372, 373, 357, 365, 350, 333, 313, 286, 295, 269, 268, 253, 242, 1, 231, 233, 211, 212, 202, 183, 171, 161, 147, 1, 2, 98, 91, 79, 69, 57, 44, 38, 24, 20, 10, 11, 4]
[3, 162, 191, 181, 194, 189, 212, 202, 206, 216, 220, 242, 249, 262, 270, 274, 280, 284, 299, 292, 322, 319, 341, 327, 343, 344, 362, 366, 373, 387, 377, 385, 384, 395, 404, 404, 417, 414, 435, 419, 431, 437, 425, 432, 425, 416, 416, 424, 408, 422, 399, 398, 372, 373, 357, 365, 350, 333, 313, 1, 295, 269, 268, 253, 242, 1, 231, 233, 211, 212, 202, 183, 171, 161, 147, 1, 2, 98, 91, 79, 69, 57, 44, 38, 24, 20, 10, 11, 4]
[3, 162, 191, 181, 194, 189, 212, 202, 206, 216, 220, 242, 249, 262, 270, 274, 280, 284, 299, 292, 322, 319, 341, 327, 343, 344, 362, 366, 373, 387, 377, 385, 384, 395, 404, 404, 417, 414, 435, 419, 431, 437, 425, 432, 425, 416, 416, 424, 408, 422, 399, 398, 372, 373, 357, 365, 350, 333, 313, 286, 295, 269, 268, 253, 242, 246, 231, 233, 211, 212, 202, 183, 171, 161, 147, 125, 108, 98, 91, 79, 69, 57, 44, 38, 24, 20, 10, 11, 4]
[3, 162, 191, 181, 194, 189, 212, 202, 206, 216, 220, 242, 249, 262, 270, 274, 280, 284, 299, 292, 322, 319, 341, 327, 343, 344, 362, 366, 373, 387, 377, 385, 384, 395, 404, 404, 417, 414, 435, 419, 431, 437, 425, 432, 425, 416, 416, 424, 408, 422, 399, 398, 372, 373, 357, 365, 350, 333, 313, 1, 295, 269, 268, 253, 242, 246, 231, 233, 211, 212, 202, 183, 171, 161, 147, 125, 108, 98, 91, 79, 69, 57, 44, 38, 24, 20, 10, 11, 4]
[3, 162, 191, 181, 194, 189, 212, 202, 206, 216, 220, 242, 249, 262, 270, 274, 280, 284, 299, 292, 322, 319, 341, 327, 343, 344, 362, 366, 373, 387, 377, 385, 384, 395, 404, 404, 417, 414, 435, 419, 431, 437, 425, 432, 425, 416, 416, 424, 408, 422, 399, 398, 372, 373, 357, 365, 350, 333, 313, 286, 295, 269, 268, 253, 242, 1, 231, 233, 211, 212, 202, 183, 171, 161, 147, 125, 108, 98, 91, 79, 69, 57, 44, 38, 24, 20, 10, 11, 4]
[3, 162, 191, 181, 194, 189, 212, 202, 206, 216, 220, 242, 249, 262, 270, 274, 280, 284, 299, 292, 322, 319, 341, 327, 343, 344, 362, 366, 373, 387, 377, 385, 384, 395, 404, 404, 417, 414, 435, 419, 431, 437, 425, 432, 425, 416, 416, 424, 408, 422, 399, 398, 372, 373, 357, 365, 350, 333, 313, 1, 295, 269, 268, 253, 242, 1, 231, 233, 211, 212, 202, 183, 171, 161, 147, 125, 108, 98, 91, 79, 69, 57, 44, 38, 24, 20, 10, 11, 4]
[78, 85, 99, 101, 126, 123, 134, 149, 162, 191, 181, 194, 189, 212, 202, 206, 216, 220, 242, 249, 262, 270, 274, 280, 284, 299, 292, 322, 319, 341, 327, 343, 344, 362, 366, 373, 387, 377, 385, 384, 395, 404, 404, 417, 414, 435, 419, 431, 437, 425, 432, 425, 416, 416, 424, 408, 422, 399, 398, 372, 373, 357, 365, 350, 333, 313, 286, 295, 269, 268, 253, 242, 246, 231, 233, 211, 212, 202, 183, 171, 161, 147, 1, 2, 98, 91, 79, 69, 57, 44, 38, 24, 20, 10, 11, 1]
[78, 85, 99, 101, 126, 123, 134, 149, 162, 191, 181, 194, 189, 212, 202, 206, 216, 220, 242, 249, 262, 270, 274, 280, 284, 299, 292, 322, 319, 341, 327, 343, 344, 362, 366, 373, 387, 377, 385, 384, 395, 404, 404, 417, 414, 435, 419, 431, 437, 425, 432, 425, 416, 416, 424, 408, 422, 399, 398, 372, 373, 357, 365, 350, 333, 313, 1, 295, 269, 268, 253, 242, 246, 231, 233, 211, 212, 202, 183, 171, 161, 147, 1, 2, 98, 91, 79, 69, 57, 44, 38, 24, 20, 10, 11, 1]
[78, 85, 99, 101, 126, 123, 134, 149, 162, 191, 181, 194, 189, 212, 202, 206, 216, 220, 242, 249, 262, 270, 274, 280, 284, 299, 292, 322, 319, 341, 327, 343, 344, 362, 366, 373, 387, 377, 385, 384, 395, 404, 404, 417, 414, 435, 419, 431, 437, 425, 432, 425, 416, 416, 424, 408, 422, 399, 398, 372, 373, 357, 365, 350, 333, 313, 286, 295, 269, 268, 253, 242, 1, 231, 233, 211, 212, 202, 183, 171, 161, 147, 1, 2, 98, 91, 79, 69, 57, 44, 38, 24, 20, 10, 11, 1]
[78, 85, 99, 101, 126, 123, 134, 149, 162, 191, 181, 194, 189, 212, 202, 206, 216, 220, 242, 249, 262, 270, 274, 280, 284, 299, 292, 322, 319, 341, 327, 343, 344, 362, 366, 373, 387, 377, 385, 384, 395, 404, 404, 417, 414, 435, 419, 431, 437, 425, 432, 425, 416, 416, 424, 408, 422, 399, 398, 372, 373, 357, 365, 350, 333, 313, 1, 295, 269, 268, 253, 242, 1, 231, 233, 211, 212, 202, 183, 171, 161, 147, 1, 2, 98, 91, 79, 69, 57, 44, 38, 24, 20, 10, 11, 1]
[78, 85, 99, 101, 126, 123, 134, 149, 162, 191, 181, 194, 189, 212, 202, 206, 216, 220, 242, 249, 262, 270, 274, 280, 284, 299, 292, 322, 319, 341, 327, 343, 344, 362, 366, 373, 387, 377, 385, 384, 395, 404, 404, 417, 414, 435, 419, 431, 437, 425, 432, 425, 416, 416, 424, 408, 422, 399, 398, 372, 373, 357, 365, 350, 333, 313, 286, 295, 269, 268, 253, 242, 246, 231, 233, 211, 212, 202, 183, 171, 161, 147, 125, 108, 98, 91, 79, 69, 57, 44, 38, 24, 20, 10, 11, 1]
[78, 85, 99, 101, 126, 123, 134, 149, 162, 191, 181, 194, 189, 212, 202, 206, 216, 220, 242, 249, 262, 270, 274, 280, 284, 299, 292, 322, 319, 341, 327, 343, 344, 362, 366, 373, 387, 377, 385, 384, 395, 404, 404, 417, 414, 435, 419, 431, 437, 425, 432, 425, 416, 416, 424, 408, 422, 399, 398, 372, 373, 357, 365, 350, 333, 313, 1, 295, 269, 268, 253, 242, 246, 231, 233, 211, 212, 202, 183, 171, 161, 147, 125, 108, 98, 91, 79, 69, 57, 44, 38, 24, 20, 10, 11, 1]
[78, 85, 99, 101, 126, 123, 134, 149, 162, 191, 181, 194, 189, 212, 202, 206, 216, 220, 242, 249, 262, 270, 274, 280, 284, 299, 292, 322, 319, 341, 327, 343, 344, 362, 366, 373, 387, 377, 385, 384, 395, 404, 404, 417, 414, 435, 419, 431, 437, 425, 432, 425, 416, 416, 424, 408, 422, 399, 398, 372, 373, 357, 365, 350, 333, 313, 286, 295, 269, 268, 253, 242, 1, 231, 233, 211, 212, 202, 183, 171, 161, 147, 125, 108, 98, 91, 79, 69, 57, 44, 38, 24, 20, 10, 11, 1]
[78, 85, 99, 101, 126, 123, 134, 149, 162, 191, 181, 194, 189, 212, 202, 206, 216, 220, 242, 249, 262, 270, 274, 280, 284, 299, 292, 322, 319, 341, 327, 343, 344, 362, 366, 373, 387, 377, 385, 384, 395, 404, 404, 417, 414, 435, 419, 431, 437, 425, 432, 425, 416, 416, 424, 408, 422, 399, 398, 372, 373, 357, 365, 350, 333, 313, 1, 295, 269, 268, 253, 242, 1, 231, 233, 211, 212, 202, 183, 171, 161, 147, 125, 108, 98, 91, 79, 69, 57, 44, 38, 24, 20, 10, 11, 1]
[3, 162, 191, 181, 194, 189, 212, 202, 206, 216, 220, 242, 249, 262, 270, 274, 280, 284, 299, 292, 322, 319, 341, 327, 343, 344, 362, 366, 373, 387, 377, 385, 384, 395, 404, 404, 417, 414, 435, 419, 431, 437, 425, 432, 425, 416, 416, 424, 408, 422, 399, 398, 372, 373, 357]
[1, 101, 126, 123, 134, 149, 162, 191, 181, 194, 189, 212, 202, 206, 216, 220, 242, 249, 262, 270, 274, 280, 284, 299, 292, 322, 319, 341, 327, 343, 344, 362, 366, 373, 387, 377, 385, 384, 395, 404, 404, 417, 414]
[1, 101, 126, 123, 134, 149, 162, 191, 181, 194, 189, 212, 202, 206, 216, 220, 242, 249, 262, 270, 274, 280, 284, 299, 292, 322, 319, 341, 327, 343, 344, 362, 366, 373, 387, 377, 385, 384, 395, 404, 404, 417, 414, 435, 419, 431, 437, 425, 432, 425, 416, 416, 424, 408, 422, 399, 398, 372, 373, 357, 365, 350, 333, 313, 286, 295, 269, 268, 253, 242, 246, 231, 233, 211, 212, 202, 183, 171, 161, 147, 1, 2, 98, 91, 79, 69, 57, 44, 38, 24, 20, 10, 11, 1]
[1, 101, 126, 123, 134, 149, 162, 191, 181, 194, 189, 212, 202, 206, 216, 220, 242, 249, 262, 270, 274, 280, 284, 299, 292, 322, 319, 341, 327, 343, 344, 362, 366, 373, 387, 377, 385, 384, 395, 404, 404, 417, 414, 435, 419, 431, 437, 425, 432, 425, 416, 416, 424, 408, 422, 399, 398, 372, 373, 357, 365, 350, 333, 313, 1, 295, 269, 268, 253, 242, 246, 231, 233, 211, 212, 202, 183, 171, 161, 147, 1, 2, 98, 91, 79, 69, 57, 44, 38, 24, 20, 10, 11, 1]
[1, 101, 126, 123, 134, 149, 162, 191, 181, 194, 189, 212, 202, 206, 216, 220, 242, 249, 262, 270, 274, 280, 284, 299, 292, 322, 319, 341, 327, 343, 344, 362, 366, 373, 387, 377, 385, 384, 395, 404, 404, 417, 414, 435, 419, 431, 437, 425, 432, 425, 416, 416, 424, 408, 422, 399, 398, 372, 373, 357, 365, 350, 333, 313, 286, 295, 269, 268, 253, 242, 1, 231, 233, 211, 212, 202, 183, 171, 161, 147, 1, 2, 98, 91, 79, 69, 57, 44, 38, 24, 20, 10, 11, 1]
[1, 101, 126, 123, 134, 149, 162, 191, 181, 194, 189, 212, 202, 206, 216, 220, 242, 249, 262, 270, 274, 280, 284, 299, 292, 322, 319, 341, 327, 343, 344, 362, 366, 373, 387, 377, 385, 384, 395, 404, 404, 417, 414, 435, 419, 431, 437, 425, 432, 425, 416, 416, 424, 408, 422, 399, 398, 372, 373, 357, 365, 350, 333, 313, 1, 295, 269, 268, 253, 242, 1, 231, 233, 211, 212, 202, 183, 171, 161, 147, 1, 2, 98, 91, 79, 69, 57, 44, 38, 24, 20, 10, 11, 1]
[1, 101, 126, 123, 134, 149, 162, 191, 181, 194, 189, 212, 202, 206, 216, 220, 242, 249, 262, 270, 274, 280, 284, 299, 292, 322, 319, 341, 327, 343, 344, 362, 366, 373, 387, 377, 385, 384, 395, 404, 404, 417, 414, 435, 419, 431, 437, 425, 432, 425, 416, 416, 424, 408, 422, 399, 398, 372, 373, 357, 365, 350, 333, 313, 286, 295, 269, 268, 253, 242, 246, 231, 233, 211, 212, 202, 183, 171, 161, 147, 125, 108, 98, 91, 79, 69, 57, 44, 38, 24, 20, 10, 11, 1]
[1, 101, 126, 123, 134, 149, 162, 191, 181, 194, 189, 212, 202, 206, 216, 220, 242, 249, 262, 270, 274, 280, 284, 299, 292, 322, 319, 341, 327, 343, 344, 362, 366, 373, 387, 377, 385, 384, 395, 404, 404, 417, 414, 435, 419, 431, 437, 425, 432, 425, 416, 416, 424, 408, 422, 399, 398, 372, 373, 357, 365, 350, 333, 313, 1, 295, 269, 268, 253, 242, 246, 231, 233, 211, 212, 202, 183, 171, 161, 147, 125, 108, 98, 91, 79, 69, 57, 44, 38, 24, 20, 10, 11, 1]
[1, 101, 126, 123, 134, 149, 162, 191, 181, 194, 189, 212, 202, 206, 216, 220, 242, 249, 262, 270, 274, 280, 284, 299, 292, 322, 319, 341, 327, 343, 344, 362, 366, 373, 387, 377, 385, 384, 395, 404, 404, 417, 414, 435, 419, 431, 437, 425, 432, 425, 416, 416, 424, 408, 422, 399, 398, 372, 373, 357, 365, 350, 333, 313, 286, 295, 269, 268, 253, 242, 1, 231, 233, 211, 212, 202, 183, 171, 161, 147, 125, 108, 98, 91, 79, 69, 57, 44, 38, 24, 20, 10, 11, 1]
[1, 101, 126, 123, 134, 149, 162, 191, 181, 194, 189, 212, 202, 206, 216, 220, 242, 249, 262, 270, 274, 280, 284, 299, 292, 322, 319, 341, 327, 343, 344, 362, 366, 373, 387, 377, 385, 384, 395, 404, 404, 417, 414, 435, 419, 431, 437, 425, 432, 425, 416, 416, 424, 408, 422, 399, 398, 372, 373, 357, 365, 350, 333, 313, 1, 295, 269, 268, 253, 242, 1, 231, 233, 211, 212, 202, 183, 171, 161, 147, 125, 108, 98, 91, 79, 69, 57, 44, 38, 24, 20, 10, 11, 1]
[1, 101, 126, 123, 134, 149, 162, 191, 181, 194, 189, 212, 202, 206, 216, 220, 242, 249, 262, 270, 274, 280, 284, 299, 292, 322, 319, 341, 327, 343, 344, 362, 366, 373, 387, 377, 385, 384, 395, 404, 404, 417, 414, 435, 419, 431, 437, 425, 432, 425, 416, 416, 424, 408, 422, 399, 398, 372, 373, 357]
[242, 246, 231, 233, 211, 212, 202, 183, 171, 161, 147, 1, 2, 98, 91, 79, 69, 57, 44, 38, 24, 20, 10, 11, 4]
[242, 1, 231, 233, 211, 212, 202, 183, 171, 161, 147, 1, 2, 98, 91, 79, 69, 57, 44, 38, 24, 20, 10, 11, 4]
[242, 246, 231, 233, 211, 212, 202, 183, 171, 161, 147, 125, 108, 98, 91, 79, 69, 57, 44, 38, 24, 20, 10, 11, 4]
[242, 1, 231, 233, 211, 212, 202, 183, 171, 161, 147, 125, 108, 98, 91, 79, 69, 57, 44, 38, 24, 20, 10, 11, 4]
[5, 8, 10, 18, 18, 21, 30, 28, 50, 56, 69, 78, 85, 99, 101, 126, 123, 134, 149, 162, 191, 181, 194, 189, 212, 202, 206, 216, 220, 242, 249, 262, 270, 274, 280, 284, 299, 292, 322, 319, 341, 327, 343, 344, 362, 366, 373, 387, 377, 385, 384, 395, 404, 404, 417, 414, 435, 419, 431, 437, 425, 432, 425, 416, 416, 424, 408, 422, 399, 398, 372, 373, 357, 365, 350, 333, 313, 286, 295, 269, 268, 253, 242, 246, 231, 233, 211, 212, 202, 183, 171, 161, 147, 1, 2, 98, 91, 79, 69, 57, 44, 38, 24, 20, 10, 11, 1]
[5, 8, 10, 18, 18, 21, 30, 28, 50, 56, 69, 78, 85, 99, 101, 126, 123, 134, 149, 162, 191, 181, 194, 189, 212, 202, 206, 216, 220, 242, 249, 262, 270, 274, 280, 284, 299, 292, 322, 319, 341, 327, 343, 344, 362, 366, 373, 387, 377, 385, 384, 395, 404, 404, 417, 414, 435, 419, 431, 437, 425, 432, 425, 416, 416, 424, 408, 422, 399, 398, 372, 373, 357, 365, 350, 333, 313, 1, 295, 269, 268, 253, 242, 246, 231, 233, 211, 212, 202, 183, 171, 161, 147, 1, 2, 98, 91, 79, 69, 57, 44, 38, 24, 20, 10, 11, 1]
[5, 8, 10, 18, 18, 21, 30, 28, 50, 56, 69, 78, 85, 99, 101, 126, 123, 134, 149, 162, 191, 181, 194, 189, 212, 202, 206, 216, 220, 242, 249, 262, 270, 274, 280, 284, 299, 292, 322, 319, 341, 327, 343, 344, 362, 366, 373, 387, 377, 385, 384, 395, 404, 404, 417, 414, 435, 419, 431, 437, 425, 432, 425, 416, 416, 424, 408, 422, 399, 398, 372, 373, 357, 365, 350, 333, 313, 286, 295, 269, 268, 253, 242, 1, 231, 233, 211, 212, 202, 183, 171, 161, 147, 1, 2, 98, 91, 79, 69, 57, 44, 38, 24, 20, 10, 11, 1]
[5, 8, 10, 18, 18, 21, 30, 28, 50, 56, 69, 78, 85, 99, 101, 126, 123, 134, 149, 162, 191, 181, 194, 189, 212, 202, 206, 216, 220, 242, 249, 262, 270, 274, 280, 284, 299, 292, 322, 319, 341, 327, 343, 344, 362, 366, 373, 387, 377, 385, 384, 395, 404, 404, 417, 414, 435, 419, 431, 437, 425, 432, 425, 416, 416, 424, 408, 422, 399, 398, 372, 373, 357, 365, 350, 333, 313, 1, 295, 269, 268, 253, 242, 1, 231, 233, 211, 212, 202, 183, 171, 161, 147, 1, 2, 98, 91, 79, 69, 57, 44, 38, 24, 20, 10, 11, 1]
[5, 8, 10, 18, 18, 21, 30, 28, 50, 56, 69, 78, 85, 99, 101, 126, 123, 134, 149, 162, 191, 181, 194, 189, 212, 202, 206, 216, 220, 242, 249, 262, 270, 274, 280, 284, 299, 292, 322, 319, 341, 327, 343, 344, 362, 366, 373, 387, 377, 385, 384, 395, 404, 404, 417, 414, 435, 419, 431, 437, 425, 432, 425, 416, 416, 424, 408, 422, 399, 398, 372, 373, 357, 365, 350, 333, 313, 286, 295, 269, 268, 253, 242, 246, 231, 233, 211, 212, 202, 183, 171, 161, 147, 125, 108, 98, 91, 79, 69, 57, 44, 38, 24, 20, 10, 11, 1]
[5, 8, 10, 18, 18, 21, 30, 28, 50, 56, 69, 78, 85, 99, 101, 126, 123, 134, 149, 162, 191, 181, 194, 189, 212, 202, 206, 216, 220, 242, 249, 262, 270, 274, 280, 284, 299, 292, 322, 319, 341, 327, 343, 344, 362, 366, 373, 387, 377, 385, 384, 395, 404, 404, 417, 414, 435, 419, 431, 437, 425, 432, 425, 416, 416, 424, 408, 422, 399, 398, 372, 373, 357, 365, 350, 333, 313, 1, 295, 269, 268, 253, 242, 246, 231, 233, 211, 212, 202, 183, 171, 161, 147, 125, 108, 98, 91, 79, 69, 57, 44, 38, 24, 20, 10, 11, 1]
[5, 8, 10, 18, 18, 21, 30, 28, 50, 56, 69, 78, 85, 99, 101, 126, 123, 134, 149, 162, 191, 181, 194, 189, 212, 202, 206, 216, 220, 242, 249, 262, 270, 274, 280, 284, 299, 292, 322, 319, 341, 327, 343, 344, 362, 366, 373, 387, 377, 385, 384, 395, 404, 404, 417, 414, 435, 419, 431, 437, 425, 432, 425, 416, 416, 424, 408, 422, 399, 398, 372, 373, 357, 365, 350, 333, 313, 286, 295, 269, 268, 253, 242, 1, 231, 233, 211, 212, 202, 183, 171, 161, 147, 125, 108, 98, 91, 79, 69, 57, 44, 38, 24, 20, 10, 11, 1]
[5, 8, 10, 18, 18, 21, 30, 28, 50, 56, 69, 78, 85, 99, 101, 126, 123, 134, 149, 162, 191, 181, 194, 189, 212, 202, 206, 216, 220, 242, 249, 262, 270, 274, 280, 284, 299, 292, 322, 319, 341, 327, 343, 344, 362, 366, 373, 387, 377, 385, 384, 395, 404, 404, 417, 414, 435, 419, 431, 437, 425, 432, 425, 416, 416, 424, 408, 422, 399, 398, 372, 373, 357, 365, 350, 333, 313, 1, 295, 269, 268, 253, 242, 1, 231, 233, 211, 212, 202, 183, 171, 161, 147, 125, 108, 98, 91, 79, 69, 57, 44, 38, 24, 20, 10, 11, 1]
[395, 404, 404, 417, 414, 435, 419, 431, 437, 425, 432, 425, 416, 416, 424, 408, 422, 399, 398, 372, 373, 357, 365, 350, 333, 313, 286, 295, 269, 268, 253, 242, 246, 231, 233, 211, 212, 202, 183, 171, 161, 147, 1, 2, 98, 91, 79, 69, 57, 44, 38, 24, 20, 10, 11, 1]
[395, 404, 404, 417, 414, 435, 419, 431, 437, 425, 432, 425, 416, 416, 424, 408, 422, 399, 398, 372, 373, 357, 365, 350, 333, 313, 1, 295, 269, 268, 253, 242, 246, 231, 233, 211, 212, 202, 183, 171, 161, 147, 1, 2, 98, 91, 79, 69, 57, 44, 38, 24, 20, 10, 11, 1]
[395, 404, 404, 417, 414, 435, 419, 431, 437, 425, 432, 425, 416, 416, 424, 408, 422, 399, 398, 372, 373, 357, 365, 350, 333, 313, 286, 295, 269, 268, 253, 242, 1, 231, 233, 211, 212, 202, 183, 171, 161, 147, 1, 2, 98, 91, 79, 69, 57, 44, 38, 24, 20, 10, 11, 1]
[395, 404, 404, 417, 414, 435, 419, 431, 437, 425, 432, 425, 416, 416, 424, 408, 422, 399, 398, 372, 373, 357, 365, 350, 333, 313, 1, 295, 269, 268, 253, 242, 1, 231, 233, 211, 212, 202, 183, 171, 161, 147, 1, 2, 98, 91, 79, 69, 57, 44, 38, 24, 20, 10, 11, 1]
[395, 404, 404, 417, 414, 435, 419, 431, 437, 425, 432, 425, 416, 416, 424, 408, 422, 399, 398, 372, 373, 357, 365, 350, 333, 313, 286, 295, 269, 268, 253, 242, 246, 231, 233, 211, 212, 202, 183, 171, 161, 147, 125, 108, 98, 91, 79, 69, 57, 44, 38, 24, 20, 10, 11, 1]
[395, 404, 404, 417, 414, 435, 419, 431, 437, 425, 432, 425, 416, 416, 424, 408, 422, 399, 398, 372, 373, 357, 365, 350, 333, 313, 1, 295, 269, 268, 253, 242, 246, 231, 233, 211, 212, 202, 183, 171, 161, 147, 125, 108, 98, 91, 79, 69, 57, 44, 38, 24, 20, 10, 11, 1]
[395, 404, 404, 417, 414, 435, 419, 431, 437, 425, 432, 425, 416, 416, 424, 408, 422, 399, 398, 372, 373, 357, 365, 350, 333, 313, 286, 295, 269, 268, 253, 242, 1, 231, 233, 211, 212, 202, 183, 171, 161, 147, 125, 108, 98, 91, 79, 69, 57, 44, 38, 24, 20, 10, 11, 1]
[395, 404, 404, 417, 414, 435, 419, 431, 437, 425, 432, 425, 416, 416, 424, 408, 422, 399, 398, 372, 373, 357, 365, 350, 333, 313, 1, 295, 269, 268, 253, 242, 1, 231, 233, 211, 212, 202, 183, 171, 161, 147, 125, 108, 98, 91, 79, 69, 57, 44, 38, 24, 20, 10, 11, 1]
[1, 101, 126, 123, 134, 149, 162, 191, 181, 194, 189, 212, 202, 206, 216, 220, 242, 249, 262, 270, 274, 280, 284, 299, 292, 322, 319, 341, 327, 343, 344, 362, 366, 373, 387, 377, 385, 384, 395, 404, 404, 417, 414, 435, 419, 431, 437, 425, 432, 425, 416, 416, 424, 408, 422, 399]
[3, 162, 191, 181, 194, 189, 212, 202, 206, 216, 220, 242, 249, 262, 270, 274, 280, 284, 299, 292, 322, 319, 341, 327, 343, 344, 362, 366, 373, 387, 377, 385, 384, 395, 404, 404, 417, 414, 435, 419, 431, 437, 425, 432, 425, 416, 416, 424, 408, 422, 399, 398, 372, 373, 357, 365, 350, 333, 313, 286, 295, 269, 268, 253, 242, 246, 231, 233, 211, 212, 202, 183, 171, 161, 147, 1, 2, 98, 91, 79, 69, 57, 44, 38, 24, 20, 10, 11, 1]
[3, 162, 191, 181, 194, 189, 212, 202, 206, 216, 220, 242, 249, 262, 270, 274, 280, 284, 299, 292, 322, 319, 341, 327, 343, 344, 362, 366, 373, 387, 377, 385, 384, 395, 404, 404, 417, 414, 435, 419, 431, 437, 425, 432, 425, 416, 416, 424, 408, 422, 399, 398, 372, 373, 357, 365, 350, 333, 313, 1, 295, 269, 268, 253, 242, 246, 231, 233, 211, 212, 202, 183, 171, 161, 147, 1, 2, 98, 91, 79, 69, 57, 44, 38, 24, 20, 10, 11, 1]
[3, 162, 191, 181, 194, 189, 212, 202, 206, 216, 220, 242, 249, 262, 270, 274, 280, 284, 299, 292, 322, 319, 341, 327, 343, 344, 362, 366, 373, 387, 377, 385, 384, 395, 404, 404, 417, 414, 435, 419, 431, 437, 425, 432, 425, 416, 416, 424, 408, 422, 399, 398, 372, 373, 357, 365, 350, 333, 313, 286, 295, 269, 268, 253, 242, 1, 231, 233, 211, 212, 202, 183, 171, 161, 147, 1, 2, 98, 91, 79, 69, 57, 44, 38, 24, 20, 10, 11, 1]
[3, 162, 191, 181, 194, 189, 212, 202, 206, 216, 220, 242, 249, 262, 270, 274, 280, 284, 299, 292, 322, 319, 341, 327, 343, 344, 362, 366, 373, 387, 377, 385, 384, 395, 404, 404, 417, 414, 435, 419, 431, 437, 425, 432, 425, 416, 416, 424, 408, 422, 399, 398, 372, 373, 357, 365, 350, 333, 313, 1, 295, 269, 268, 253, 242, 1, 231, 233, 211, 212, 202, 183, 171, 161, 147, 1, 2, 98, 91, 79, 69, 57, 44, 38, 24, 20, 10, 11, 1]
[3, 162, 191, 181, 194, 189, 212, 202, 206, 216, 220, 242, 249, 262, 270, 274, 280, 284, 299, 292, 322, 319, 341, 327, 343, 344, 362, 366, 373, 387, 377, 385, 384, 395, 404, 404, 417, 414, 435, 419, 431, 437, 425, 432, 425, 416, 416, 424, 408, 422, 399, 398, 372, 373, 357, 365, 350, 333, 313, 286, 295, 269, 268, 253, 242, 246, 231, 233, 211, 212, 202, 183, 171, 161, 147, 125, 108, 98, 91, 79, 69, 57, 44, 38, 24, 20, 10, 11, 1]
[3, 162, 191, 181, 194, 189, 212, 202, 206, 216, 220, 242, 249, 262, 270, 274, 280, 284, 299, 292, 322, 319, 341, 327, 343, 344, 362, 366, 373, 387, 377, 385, 384, 395, 404, 404, 417, 414, 435, 419, 431, 437, 425, 432, 425, 416, 416, 424, 408, 422, 399, 398, 372, 373, 357, 365, 350, 333, 313, 1, 295, 269, 268, 253, 242, 246, 231, 233, 211, 212, 202, 183, 171, 161, 147, 125, 108, 98, 91, 79, 69, 57, 44, 38, 24, 20, 10, 11, 1]
[3, 162, 191, 181, 194, 189, 212, 202, 206, 216, 220, 242, 249, 262, 270, 274, 280, 284, 299, 292, 322, 319, 341, 327, 343, 344, 362, 366, 373, 387, 377, 385, 384, 395, 404, 404, 417, 414, 435, 419, 431, 437, 425, 432, 425, 416, 416, 424, 408, 422, 399, 398, 372, 373, 357, 365, 350, 333, 313, 286, 295, 269, 268, 253, 242, 1, 231, 233, 211, 212, 202, 183, 171, 161, 147, 125, 108, 98, 91, 79, 69, 57, 44, 38, 24, 20, 10, 11, 1]
[3, 162, 191, 181, 194, 189, 212, 202, 206, 216, 220, 242, 249, 262, 270, 274, 280, 284, 299, 292, 322, 319, 341, 327, 343, 344, 362, 366, 373, 387, 377, 385, 384, 395, 404, 404, 417, 414, 435, 419, 431, 437, 425, 432, 425, 416, 416, 424, 408, 422, 399, 398, 372, 373, 357, 365, 350, 333, 313, 1, 295, 269, 268, 253, 242, 1, 231, 233, 211, 212, 202, 183, 171, 161, 147, 125, 108, 98, 91, 79, 69, 57, 44, 38, 24, 20, 10, 11, 1]
[3, 162, 191, 181, 194, 189, 212, 202, 206, 216, 220, 242, 249, 262, 270, 274, 280, 284, 299, 292, 322, 319, 341, 327, 343, 344, 362, 366, 373, 387, 377, 385, 384, 395, 404, 404, 417, 414]
[1, 101, 126, 123, 134, 149, 162, 191, 181, 194, 189, 212, 202, 206, 216, 220, 242, 249, 262, 270, 274, 280, 284, 299, 292, 322, 319, 341, 327, 343, 344, 362, 366, 373, 387, 377, 385, 384, 395, 404, 404, 417, 414, 435, 419, 431, 437, 425, 432, 425, 416, 416, 424, 408, 422, 399, 398, 372, 373, 357, 365, 350, 333, 313, 286, 295, 269, 268, 253, 242, 246, 231, 233, 211, 212, 202, 183, 171, 161, 147, 1, 2, 98, 91, 79, 69, 57, 44, 38, 24, 20, 10, 11, 4]
[1, 101, 126, 123, 134, 149, 162, 191, 181, 194, 189, 212, 202, 206, 216, 220, 242, 249, 262, 270, 274, 280, 284, 299, 292, 322, 319, 341, 327, 343, 344, 362, 366, 373, 387, 377, 385, 384, 395, 404, 404, 417, 414, 435, 419, 431, 437, 425, 432, 425, 416, 416, 424, 408, 422, 399, 398, 372, 373, 357, 365, 350, 333, 313, 1, 295, 269, 268, 253, 242, 246, 231, 233, 211, 212, 202, 183, 171, 161, 147, 1, 2, 98, 91, 79, 69, 57, 44, 38, 24, 20, 10, 11, 4]
[1, 101, 126, 123, 134, 149, 162, 191, 181, 194, 189, 212, 202, 206, 216, 220, 242, 249, 262, 270, 274, 280, 284, 299, 292, 322, 319, 341, 327, 343, 344, 362, 366, 373, 387, 377, 385, 384, 395, 404, 404, 417, 414, 435, 419, 431, 437, 425, 432, 425, 416, 416, 424, 408, 422, 399, 398, 372, 373, 357, 365, 350, 333, 313, 286, 295, 269, 268, 253, 242, 1, 231, 233, 211, 212, 202, 183, 171, 161, 147, 1, 2, 98, 91, 79, 69, 57, 44, 38, 24, 20, 10, 11, 4]
[1, 101, 126, 123, 134, 149, 162, 191, 181, 194, 189, 212, 202, 206, 216, 220, 242, 249, 262, 270, 274, 280, 284, 299, 292, 322, 319, 341, 327, 343, 344, 362, 366, 373, 387, 377, 385, 384, 395, 404, 404, 417, 414, 435, 419, 431, 437, 425, 432, 425, 416, 416, 424, 408, 422, 399, 398, 372, 373, 357, 365, 350, 333, 313, 1, 295, 269, 268, 253, 242, 1, 231, 233, 211, 212, 202, 183, 171, 161, 147, 1, 2, 98, 91, 79, 69, 57, 44, 38, 24, 20, 10, 11, 4]
[1, 101, 126, 123, 134, 149, 162, 191, 181, 194, 189, 212, 202, 206, 216, 220, 242, 249, 262, 270, 274, 280, 284, 299, 292, 322, 319, 341, 327, 343, 344, 362, 366, 373, 387, 377, 385, 384, 395, 404, 404, 417, 414, 435, 419, 431, 437, 425, 432, 425, 416, 416, 424, 408, 422, 399, 398, 372, 373, 357, 365, 350, 333, 313, 286, 295, 269, 268, 253, 242, 246, 231, 233, 211, 212, 202, 183, 171, 161, 147, 125, 108, 98, 91, 79, 69, 57, 44, 38, 24, 20, 10, 11, 4]
[1, 101, 126, 123, 134, 149, 162, 191, 181, 194, 189, 212, 202, 206, 216, 220, 242, 249, 262, 270, 274, 280, 284, 299, 292, 322, 319, 341, 327, 343, 344, 362, 366, 373, 387, 377, 385, 384, 395, 404, 404, 417, 414, 435, 419, 431, 437, 425, 432, 425, 416, 416, 424, 408, 422, 399, 398, 372, 373, 357, 365, 350, 333, 313, 1, 295, 269, 268, 253, 242, 246, 231, 233, 211, 212, 202, 183, 171, 161, 147, 125, 108, 98, 91, 79, 69, 57, 44, 38, 24, 20, 10, 11, 4]
[1, 101, 126, 123, 134, 149, 162, 191, 181, 194, 189, 212, 202, 206, 216, 220, 242, 249, 262, 270, 274, 280, 284, 299, 292, 322, 319, 341, 327, 343, 344, 362, 366, 373, 387, 377, 385, 384, 395, 404, 404, 417, 414, 435, 419, 431, 437, 425, 432, 425, 416, 416, 424, 408, 422, 399, 398, 372, 373, 357, 365, 350, 333, 313, 286, 295, 269, 268, 253, 242, 1, 231, 233, 211, 212, 202, 183, 171, 161, 147, 125, 108, 98, 91, 79, 69, 57, 44, 38, 24, 20, 10, 11, 4]
[1, 101, 126, 123, 134, 149, 162, 191, 181, 194, 189, 212, 202, 206, 216, 220, 242, 249, 262, 270, 274, 280, 284, 299, 292, 322, 319, 341, 327, 343, 344, 362, 366, 373, 387, 377, 385, 384, 395, 404, 404, 417, 414, 435, 419, 431, 437, 425, 432, 425, 416, 416, 424, 408, 422, 399, 398, 372, 373, 357, 365, 350, 333, 313, 1, 295, 269, 268, 253, 242, 1, 231, 233, 211, 212, 202, 183, 171, 161, 147, 125, 108, 98, 91, 79, 69, 57, 44, 38, 24, 20, 10, 11, 4]
[5, 8, 10, 18, 18, 21, 30, 28, 50, 56, 69, 78, 85, 99, 101, 126, 123, 134, 149, 162, 191, 181, 194, 189, 212, 202, 206, 216, 220, 242, 249, 262, 270, 274, 280, 284, 299, 292, 322, 319, 341, 327, 343, 344, 362, 366, 373, 387, 377, 385, 384, 395, 404, 404, 417, 414, 435, 419, 431, 437, 425, 432, 425, 416, 416, 424, 408, 422, 399, 398, 372, 373, 357]
[242, 246, 231, 233, 211, 212, 202, 183, 171, 161, 147, 1, 2, 98, 91, 79, 69, 57, 44, 38, 24, 20, 10, 11, 1]
[242, 1, 231, 233, 211, 212, 202, 183, 171, 161, 147, 1, 2, 98, 91, 79, 69, 57, 44, 38, 24, 20, 10, 11, 1]
[242, 246, 231, 233, 211, 212, 202, 183, 171, 161, 147, 125, 108, 98, 91, 79, 69, 57, 44, 38, 24, 20, 10, 11, 1]
[242, 1, 231, 233, 211, 212, 202, 183, 171, 161, 147, 125, 108, 98, 91, 79, 69, 57, 44, 38, 24, 20, 10, 11, 1]
[78, 85, 99, 101, 126, 123, 134, 149, 162, 191, 181, 194, 189, 212, 202, 206, 216, 220, 242, 249, 262, 270, 274, 280, 284, 299, 292, 322, 319, 341, 327, 343, 344, 362, 366, 373, 387, 377, 385, 384, 395, 404, 404, 417, 414, 435, 419, 431, 437, 425, 432, 425, 416, 416, 424, 408, 422, 399, 398, 372, 373, 357]
[395, 404, 404, 417, 414, 435, 419, 431, 437, 425, 432, 425, 416, 416, 424, 408, 422, 399, 398, 372, 373, 357, 365, 350, 333, 313, 286, 295, 269, 268, 253, 242, 246, 231, 233, 211, 212, 202, 183, 171, 161, 147, 1, 2, 98, 91, 79, 69, 57, 44, 38, 24, 20, 10, 11, 4]
[395, 404, 404, 417, 414, 435, 419, 431, 437, 425, 432, 425, 416, 416, 424, 408, 422, 399, 398, 372, 373, 357, 365, 350, 333, 313, 1, 295, 269, 268, 253, 242, 246, 231, 233, 211, 212, 202, 183, 171, 161, 147, 1, 2, 98, 91, 79, 69, 57, 44, 38, 24, 20, 10, 11, 4]
[395, 404, 404, 417, 414, 435, 419, 431, 437, 425, 432, 425, 416, 416, 424, 408, 422, 399, 398, 372, 373, 357, 365, 350, 333, 313, 286, 295, 269, 268, 253, 242, 1, 231, 233, 211, 212, 202, 183, 171, 161, 147, 1, 2, 98, 91, 79, 69, 57, 44, 38, 24, 20, 10, 11, 4]
[395, 404, 404, 417, 414, 435, 419, 431, 437, 425, 432, 425, 416, 416, 424, 408, 422, 399, 398, 372, 373, 357, 365, 350, 333, 313, 1, 295, 269, 268, 253, 242, 1, 231, 233, 211, 212, 202, 183, 171, 161, 147, 1, 2, 98, 91, 79, 69, 57, 44, 38, 24, 20, 10, 11, 4]
[395, 404, 404, 417, 414, 435, 419, 431, 437, 425, 432, 425, 416, 416, 424, 408, 422, 399, 398, 372, 373, 357, 365, 350, 333, 313, 286, 295, 269, 268, 253, 242, 246, 231, 233, 211, 212, 202, 183, 171, 161, 147, 125, 108, 98, 91, 79, 69, 57, 44, 38, 24, 20, 10, 11, 4]
[395, 404, 404, 417, 414, 435, 419, 431, 437, 425, 432, 425, 416, 416, 424, 408, 422, 399, 398, 372, 373, 357, 365, 350, 333, 313, 1, 295, 269, 268, 253, 242, 246, 231, 233, 211, 212, 202, 183, 171, 161, 147, 125, 108, 98, 91, 79, 69, 57, 44, 38, 24, 20, 10, 11, 4]
[395, 404, 404, 417, 414, 435, 419, 431, 437, 425, 432, 425, 416, 416, 424, 408, 422, 399, 398, 372, 373, 357, 365, 350, 333, 313, 286, 295, 269, 268, 253, 242, 1, 231, 233, 211, 212, 202, 183, 171, 161, 147, 125, 108, 98, 91, 79, 69, 57, 44, 38, 24, 20, 10, 11, 4]
[395, 404, 404, 417, 414, 435, 419, 431, 437, 425, 432, 425, 416, 416, 424, 408, 422, 399, 398, 372, 373, 357, 365, 350, 333, 313, 1, 295, 269, 268, 253, 242, 1, 231, 233, 211, 212, 202, 183, 171, 161, 147, 125, 108, 98, 91, 79, 69, 57, 44, 38, 24, 20, 10, 11, 4]
[5, 8, 10, 18, 18, 21, 30, 28, 50, 56, 69, 78, 85, 99, 101, 126, 123, 134, 149, 162, 191, 181, 194, 189, 212, 202, 206, 216, 220, 242, 249, 262, 270, 274, 280, 284, 299, 292, 322, 319, 341, 327, 343, 344, 362, 366, 373, 387, 377, 385, 384, 395, 404, 404, 417, 414, 435, 419, 431, 437, 425, 432, 425, 416, 416, 424, 408, 422, 399]
[78, 85, 99, 101, 126, 123, 134, 149, 162, 191, 181, 194, 189, 212, 202, 206, 216, 220, 242, 249, 262, 270, 274, 280, 284, 299, 292, 322, 319, 341, 327, 343, 344, 362, 366, 373, 387, 377, 385, 384, 395, 404, 404, 417, 414, 435, 419, 431, 437, 425, 432, 425, 416, 416, 424, 408, 422, 399]
[395, 404, 404, 417, 414]
[78, 85, 99, 101, 126, 123, 134, 149, 162, 191, 181, 194, 189, 212, 202, 206, 216, 220, 242, 249, 262, 270, 274, 280, 284, 299, 292, 322, 319, 341, 327, 343, 344, 362, 366, 373, 387, 377, 385, 384, 395, 404, 404, 417, 414, 435, 419, 431, 437, 425, 432, 425, 416, 416, 424, 408, 422, 399, 398, 372, 373, 357, 365, 350, 333, 313, 286, 295, 269, 268, 253, 242, 246, 231, 233, 211, 212, 202, 183, 171, 161, 147, 1, 2, 98, 91, 79, 69, 57, 44, 38, 24, 20, 10, 11, 4]
[78, 85, 99, 101, 126, 123, 134, 149, 162, 191, 181, 194, 189, 212, 202, 206, 216, 220, 242, 249, 262, 270, 274, 280, 284, 299, 292, 322, 319, 341, 327, 343, 344, 362, 366, 373, 387, 377, 385, 384, 395, 404, 404, 417, 414, 435, 419, 431, 437, 425, 432, 425, 416, 416, 424, 408, 422, 399, 398, 372, 373, 357, 365, 350, 333, 313, 1, 295, 269, 268, 253, 242, 246, 231, 233, 211, 212, 202, 183, 171, 161, 147, 1, 2, 98, 91, 79, 69, 57, 44, 38, 24, 20, 10, 11, 4]
[78, 85, 99, 101, 126, 123, 134, 149, 162, 191, 181, 194, 189, 212, 202, 206, 216, 220, 242, 249, 262, 270, 274, 280, 284, 299, 292, 322, 319, 341, 327, 343, 344, 362, 366, 373, 387, 377, 385, 384, 395, 404, 404, 417, 414, 435, 419, 431, 437, 425, 432, 425, 416, 416, 424, 408, 422, 399, 398, 372, 373, 357, 365, 350, 333, 313, 286, 295, 269, 268, 253, 242, 1, 231, 233, 211, 212, 202, 183, 171, 161, 147, 1, 2, 98, 91, 79, 69, 57, 44, 38, 24, 20, 10, 11, 4]
[78, 85, 99, 101, 126, 123, 134, 149, 162, 191, 181, 194, 189, 212, 202, 206, 216, 220, 242, 249, 262, 270, 274, 280, 284, 299, 292, 322, 319, 341, 327, 343, 344, 362, 366, 373, 387, 377, 385, 384, 395, 404, 404, 417, 414, 435, 419, 431, 437, 425, 432, 425, 416, 416, 424, 408, 422, 399, 398, 372, 373, 357, 365, 350, 333, 313, 1, 295, 269, 268, 253, 242, 1, 231, 233, 211, 212, 202, 183, 171, 161, 147, 1, 2, 98, 91, 79, 69, 57, 44, 38, 24, 20, 10, 11, 4]
[78, 85, 99, 101, 126, 123, 134, 149, 162, 191, 181, 194, 189, 212, 202, 206, 216, 220, 242, 249, 262, 270, 274, 280, 284, 299, 292, 322, 319, 341, 327, 343, 344, 362, 366, 373, 387, 377, 385, 384, 395, 404, 404, 417, 414, 435, 419, 431, 437, 425, 432, 425, 416, 416, 424, 408, 422, 399, 398, 372, 373, 357, 365, 350, 333, 313, 286, 295, 269, 268, 253, 242, 246, 231, 233, 211, 212, 202, 183, 171, 161, 147, 125, 108, 98, 91, 79, 69, 57, 44, 38, 24, 20, 10, 11, 4]
[78, 85, 99, 101, 126, 123, 134, 149, 162, 191, 181, 194, 189, 212, 202, 206, 216, 220, 242, 249, 262, 270, 274, 280, 284, 299, 292, 322, 319, 341, 327, 343, 344, 362, 366, 373, 387, 377, 385, 384, 395, 404, 404, 417, 414, 435, 419, 431, 437, 425, 432, 425, 416, 416, 424, 408, 422, 399, 398, 372, 373, 357, 365, 350, 333, 313, 1, 295, 269, 268, 253, 242, 246, 231, 233, 211, 212, 202, 183, 171, 161, 147, 125, 108, 98, 91, 79, 69, 57, 44, 38, 24, 20, 10, 11, 4]
[78, 85, 99, 101, 126, 123, 134, 149, 162, 191, 181, 194, 189, 212, 202, 206, 216, 220, 242, 249, 262, 270, 274, 280, 284, 299, 292, 322, 319, 341, 327, 343, 344, 362, 366, 373, 387, 377, 385, 384, 395, 404, 404, 417, 414, 435, 419, 431, 437, 425, 432, 425, 416, 416, 424, 408, 422, 399, 398, 372, 373, 357, 365, 350, 333, 313, 286, 295, 269, 268, 253, 242, 1, 231, 233, 211, 212, 202, 183, 171, 161, 147, 125, 108, 98, 91, 79, 69, 57, 44, 38, 24, 20, 10, 11, 4]
[78, 85, 99, 101, 126, 123, 134, 149, 162, 191, 181, 194, 189, 212, 202, 206, 216, 220, 242, 249, 262, 270, 274, 280, 284, 299, 292, 322, 319, 341, 327, 343, 344, 362, 366, 373, 387, 377, 385, 384, 395, 404, 404, 417, 414, 435, 419, 431, 437, 425, 432, 425, 416, 416, 424, 408, 422, 399, 398, 372, 373, 357, 365, 350, 333, 313, 1, 295, 269, 268, 253, 242, 1, 231, 233, 211, 212, 202, 183, 171, 161, 147, 125, 108, 98, 91, 79, 69, 57, 44, 38, 24, 20, 10, 11, 4]
[78, 85, 99, 101, 126, 123, 134, 149, 162, 191, 181, 194, 189, 212, 202, 206, 216, 220, 242, 249, 262, 270, 274, 280, 284, 299, 292, 322, 319, 341, 327, 343, 344, 362, 366, 373, 387, 377, 385, 384, 395, 404, 404, 417, 414]
